…
``` r
# pre_iaaf <- pre_iaaf[[1]] ## Would also work

# library(dplyr)
pre_iaaf <-
  pre_iaaf %>%
  bind_rows() %>%
  as_tibble()

# library(janitor)
pre_iaaf <- clean_names(pre_iaaf) ## Clean column names
pre_iaaf
```

    ## # A tibble: 21 x 5
    ##     time athlete            nationality    location_of_races     date           
    ##    <dbl> <chr>              <chr>          <chr>                 <chr>          
    ##  1  10.8 Luther Cary        United States  Paris, France         July 4, 1891   
    ##  2  10.8 Cecil Lee          United Kingdom Brussels, Belgium     September 25, …
    ##  3  10.8 Étienne De Ré      Belgium        Brussels, Belgium     August 4, 1893 
    ##  4  10.8 L. Atcherley       United Kingdom Frankfurt/Main, Germ… April 13, 1895 
    ##  5  10.8 Harry Beaton       United Kingdom Rotterdam, Netherlan… August 28, 1895
    ##  6  10.8 Harald Anderson-A… Sweden         Helsingborg, Sweden   August 9, 1896 
    ##  7  10.8 Isaac Westergren   Sweden         Gävle, Sweden         September 11, …
    ##  8  10.8 10.8               Sweden         Gävle, Sweden         September 10, …
    ##  9  10.8 Frank Jarvis       United States  Paris, France         July 14, 1900  
    ## 10  10.8 Walter Tewksbury   United States  Paris, France         July 14, 1900  
    ## # … with 11 more rows
…
    ## Warning in ifelse(is.na(as.numeric(athlete)), athlete, lag(athlete)): NAs
    ## introduced by coercion

Finally, convert date column from chr format to date format:

``` r
# library(lubridate)
pre_iaaf <-
  pre_iaaf %>%
  mutate(date = mdy(date))
pre_iaaf
```

    ## # A tibble: 21 x 5
    ##     time athlete               nationality    location_of_races       date      
    ##    <dbl> <chr>                 <chr>          <chr>                   <date>    
    ##  1  10.8 Luther Cary           United States  Paris, France           1891-07-04
    ##  2  10.8 Cecil Lee             United Kingdom Brussels, Belgium       1892-09-25
    ##  3  10.8 Étienne De Ré         Belgium        Brussels, Belgium       1893-08-04
    ##  4  10.8 L. Atcherley          United Kingdom Frankfurt/Main, Germany 1895-04-13
    ##  5  10.8 Harry Beaton          United Kingdom Rotterdam, Netherlands  1895-08-28
    ##  6  10.8 Harald Anderson-Arbin Sweden         Helsingborg, Sweden     1896-08-09
    ##  7  10.8 Isaac Westergren      Sweden         Gävle, Sweden           1898-09-11
    ##  8  10.8 Isaac Westergren      Sweden         Gävle, Sweden           1899-09-10
    ##  9  10.8 Frank Jarvis          United States  Paris, France           1900-07-14
    ## 10  10.8 Walter Tewksbury      United States  Paris, France           1900-07-14
    ## # … with 11 more rows
…
