…
We’ll use the [2015 Street Tree
Census](https://data.cityofnewyork.us/Environment/2015-Street-Tree-Census-Tree-Data/uvpi-gqnh).

``` r
# library(jsonlite)
nyc_trees <- 
  fromJSON("https://data.cityofnewyork.us/resource/uvpi-gqnh.json") %>%
  as_tibble()
nyc_trees
```

    ## # A tibble: 1,000 x 45
    ##    tree_id block_id created_at tree_dbh stump_diam curb_loc status health
    ##    <chr>   <chr>    <chr>      <chr>    <chr>      <chr>    <chr>  <chr> 
    ##  1 180683  348711   2015-08-2… 3        0          OnCurb   Alive  Fair  
    ##  2 200540  315986   2015-09-0… 21       0          OnCurb   Alive  Fair  
    ##  3 204026  218365   2015-09-0… 3        0          OnCurb   Alive  Good  
    ##  4 204337  217969   2015-09-0… 10       0          OnCurb   Alive  Good  
    ##  5 189565  223043   2015-08-3… 21       0          OnCurb   Alive  Good  
    ##  6 190422  106099   2015-08-3… 11       0          OnCurb   Alive  Good  
    ##  7 190426  106099   2015-08-3… 11       0          OnCurb   Alive  Good  
    ##  8 208649  103940   2015-09-0… 9        0          OnCurb   Alive  Good  
    ##  9 209610  407443   2015-09-0… 6        0          OnCurb   Alive  Good  
    ## 10 192755  207508   2015-08-3… 21       0          OffsetF… Alive  Fair  
    ## # … with 990 more rows, and 37 more variables: spc_latin <chr>,
    ## #   spc_common <chr>, steward <chr>, guards <chr>, sidewalk <chr>,
    ## #   user_type <chr>, problems <chr>, root_stone <chr>, root_grate <chr>,
    ## #   root_other <chr>, trunk_wire <chr>, trnk_light <chr>, trnk_other <chr>,
    ## #   brch_light <chr>, brch_shoe <chr>, brch_other <chr>, address <chr>,
    ## #   zipcode <chr>, zip_city <chr>, cb_num <chr>, borocode <chr>,
    ## #   boroname <chr>, cncldist <chr>, st_assem <chr>, st_senate <chr>, nta <chr>,
    ## #   nta_name <chr>, boro_ct <chr>, state <chr>, latitude <chr>,
    ## #   longitude <chr>, x_sp <chr>, y_sp <chr>, council_district <chr>,
…
Looks like the `fred$observations` sub-element is what we want.

``` r
fred <- 
  fred %>%
  httr::content("text") %>%  ## Extract the content/data from the API response
  jsonlite::fromJSON() %>%  ## Convert it to an R object
  purrr::pluck("observations") %>%  ## Extract the "$observations" list element
  # .$observations %>%  ## Would also work
  # magrittr:extract("observations") %>%  ## Would also work
  as_tibble()
fred
```

    ## # A tibble: 91 x 4
    ##    realtime_start realtime_end date       value   
    ##    <chr>          <chr>        <chr>      <chr>   
    ##  1 2020-05-08     2020-05-08   1929-01-01 1120.076
    ##  2 2020-05-08     2020-05-08   1930-01-01 1025.091
    ##  3 2020-05-08     2020-05-08   1931-01-01 958.378 
    ##  4 2020-05-08     2020-05-08   1932-01-01 834.291 
    ##  5 2020-05-08     2020-05-08   1933-01-01 823.156 
    ##  6 2020-05-08     2020-05-08   1934-01-01 911.019 
    ##  7 2020-05-08     2020-05-08   1935-01-01 992.537 
    ##  8 2020-05-08     2020-05-08   1936-01-01 1118.944
    ##  9 2020-05-08     2020-05-08   1937-01-01 1177.572
    ## 10 2020-05-08     2020-05-08   1938-01-01 1138.989
    ## # … with 81 more rows
…
``` r
# library(janitor)
rankings <- 
  bind_cols(rugby$entries$team,
            rugby$entries %>% select(-team)
            ) %>%
  clean_names() %>%
  select(-c(id, alt_id, annotations)) %>%  ## These columns aren't needed
  select(pos, pts, everything()) %>%  ## Reorder columns
  as_tibble()
rankings
```

    ## # A tibble: 105 x 7
    ##      pos   pts name         abbreviation matches previous_pts previous_pos
    ##    <int> <dbl> <chr>        <chr>          <int>        <dbl>        <int>
    ##  1     1  94.2 South Africa RSA              212         94.2            1
    ##  2     2  92.1 New Zealand  NZL              220         92.1            2
    ##  3     3  88.4 England      ENG              208         88.3            3
    ##  4     4  84.9 Ireland      IRE              199         84.9            4
    ##  5     5  82.7 France       FRA              203         83.9            5
    ##  6     6  82.6 Wales        WAL              216         82.8            6
    ##  7     7  81.9 Australia    AUS              227         81.9            7
    ##  8     8  80.7 Scotland     SCO              194         79.6            8
    ##  9     9  79.3 Japan        JPN              174         79.3            9
    ## 10    10  78.3 Argentina    ARG              190         78.3           10
    ## # … with 95 more rows
…
